{
    "EmpRecord": {
        "Employee": [
            {
                "_id": "emp01",
                "name": "Quantom",
                "job": "Architect",
                "skills": ["python", "c/c++", "javascript"]
            },
            {
                "_id": "emp02",
                "name": "Vijai",
                "job": "Developer",
                "skills": ["data-science", "c/c++", "robotics"]
            }
        ]
    }
}